[
	{
		"inputs": [
			{
				"internalType": "bytes32",
				"name": "username",
				"type": "bytes32"
			}
		],
		"name": "set_user",
		"outputs": [],
		"stateMutability": "nonpayable",
		"type": "function"
	},
	{
		"inputs": [
			{
				"internalType": "bytes32",
				"name": "username",
				"type": "bytes32"
			}
		],
		"name": "get_user",
		"outputs": [
			{
				"components": [
					{
						"internalType": "address",
						"name": "ethaddr",
						"type": "address"
					},
					{
						"internalType": "bool",
						"name": "created",
						"type": "bool"
					}
				],
				"internalType": "struct AddressSharing.User",
				"name": "",
				"type": "tuple"
			}
		],
		"stateMutability": "view",
		"type": "function"
	}
]